C:\Users\MadhurVK\Equitable-InteliApp\Unisys-InteliApp\src\test\java\com\apd\inteliserve\sanity\IA_694.java
C:\Users\MadhurVK\Equitable-InteliApp\Unisys-InteliApp\src\test\java\com\apd\inteliserve\sanity\IA_1038.java
C:\Users\MadhurVK\Equitable-InteliApp\Unisys-InteliApp\src\test\java\com\apd\inteliserve\sanity\IA_701.java
C:\Users\MadhurVK\Equitable-InteliApp\Unisys-InteliApp\src\test\java\com\apd\inteliserve\sanity\IA_1011_TermsOfUse.java
C:\Users\MadhurVK\Equitable-InteliApp\Unisys-InteliApp\src\test\java\com\apd\inteliserve\sanity\IA_1037.java
C:\Users\MadhurVK\Equitable-InteliApp\Unisys-InteliApp\src\test\java\com\apd\inteliserve\sanity\IA_1173.java
C:\Users\MadhurVK\Equitable-InteliApp\Unisys-InteliApp\src\test\java\com\apd\inteliserve\sanity\IA_819_KnowledgeBase.java
C:\Users\MadhurVK\Equitable-InteliApp\Unisys-InteliApp\src\test\java\com\apd\inteliserve\sanity\IA_819_SupportCorner.java
C:\Users\MadhurVK\Equitable-InteliApp\Unisys-InteliApp\src\test\java\com\apd\inteliserve\sanity\IA_1176.java
C:\Users\MadhurVK\Equitable-InteliApp\Unisys-InteliApp\src\test\java\com\apd\inteliserve\sanity\IA_1178.java
C:\Users\MadhurVK\Equitable-InteliApp\Unisys-InteliApp\src\test\java\com\apd\inteliserve\sanity\IA_819_SC_Email.java
C:\Users\MadhurVK\Equitable-InteliApp\Unisys-InteliApp\src\test\java\com\apd\inteliserve\sanity\IA_1011.java
C:\Users\MadhurVK\Equitable-InteliApp\Unisys-InteliApp\src\test\java\com\apd\inteliserve\sanity\IA_1167.java
C:\Users\MadhurVK\Equitable-InteliApp\Unisys-InteliApp\src\test\java\com\apd\inteliserve\sanity\IA_828.java
C:\Users\MadhurVK\Equitable-InteliApp\Unisys-InteliApp\src\test\java\com\apd\inteliserve\sanity\LanguageTest.java
C:\Users\MadhurVK\Equitable-InteliApp\Unisys-InteliApp\src\test\java\com\apd\inteliserve\sanity\IA_819_CompanyNews.java
C:\Users\MadhurVK\Equitable-InteliApp\Unisys-InteliApp\src\test\java\com\apd\inteliserve\sanity\IA_819_SC_Call.java
C:\Users\MadhurVK\Equitable-InteliApp\Unisys-InteliApp\src\test\java\com\apd\inteliserve\sanity\IA_1009.java
C:\Users\MadhurVK\Equitable-InteliApp\Unisys-InteliApp\src\test\java\com\apd\inteliserve\sanity\IA_750.java
C:\Users\MadhurVK\Equitable-InteliApp\Unisys-InteliApp\src\test\java\com\apd\inteliserve\sanity\IA_1041.java
C:\Users\MadhurVK\Equitable-InteliApp\Unisys-InteliApp\src\test\java\com\apd\inteliserve\sanity\IA_819_SC_Chat.java
C:\Users\MadhurVK\Equitable-InteliApp\Unisys-InteliApp\src\test\java\com\apd\inteliserve\sanity\IA_829.java
C:\Users\MadhurVK\Equitable-InteliApp\Unisys-InteliApp\src\test\java\com\apd\inteliserve\sanity\IA_698.java
C:\Users\MadhurVK\Equitable-InteliApp\Unisys-InteliApp\src\test\java\com\apd\inteliserve\sanity\IA_700.java
C:\Users\MadhurVK\Equitable-InteliApp\Unisys-InteliApp\src\test\java\com\apd\inteliserve\sanity\IA_1009_TermsOfUse.java
C:\Users\MadhurVK\Equitable-InteliApp\Unisys-InteliApp\src\test\java\com\apd\inteliserve\sanity\SuiteRun.java
